<?xml version="1.0" encoding="UTF-8" standalone="no"?>
<!-- Created with Inkscape (http://www.inkscape.org/) -->

<svg
   width="100mm"
   height="60mm"
   viewBox="0 0 100 60"
   version="1.1"
   id="svg5"
   inkscape:version="1.1.2 (0a00cf5339, 2022-02-04)"
   sodipodi:docname="Nand.svg"
   inkscape:export-filename="/home/aly/Projects/MadR/V01/src/Nand.png"
   inkscape:export-xdpi="96"
   inkscape:export-ydpi="96"
   xmlns:inkscape="http://www.inkscape.org/namespaces/inkscape"
   xmlns:sodipodi="http://sodipodi.sourceforge.net/DTD/sodipodi-0.dtd"
   xmlns="http://www.w3.org/2000/svg"
   xmlns:svg="http://www.w3.org/2000/svg">
  <sodipodi:namedview
     id="namedview7"
     pagecolor="#ffffff"
     bordercolor="#666666"
     borderopacity="1.0"
     inkscape:pageshadow="2"
     inkscape:pageopacity="0.0"
     inkscape:pagecheckerboard="0"
     inkscape:document-units="mm"
     showgrid="false"
     inkscape:zoom="2.7260101"
     inkscape:cx="151.32006"
     inkscape:cy="111.88513"
     inkscape:window-width="1920"
     inkscape:window-height="937"
     inkscape:window-x="0"
     inkscape:window-y="32"
     inkscape:window-maximized="1"
     inkscape:current-layer="layer2"
     inkscape:snap-bbox="true" />
  <defs
     id="defs2" />
  <g
     inkscape:label="BaseGrid"
     inkscape:groupmode="layer"
     id="layer1"
     transform="translate(-53.331692,-65.064415)"
     sodipodi:insensitive="true"
     style="display:none">
    <rect
       style="fill:none;fill-rule:evenodd;stroke:#000000;stroke-width:0.260594;stroke-opacity:1"
       id="rect306"
       width="100"
       height="60"
       x="53.331692"
       y="65.064415" />
    <rect
       style="fill:none;stroke:#000000;stroke-width:0.264583;stroke-opacity:1"
       id="rect462"
       width="5"
       height="60"
       x="53.331692"
       y="65.064415" />
    <rect
       style="fill:none;stroke:#000000;stroke-width:0.264583;stroke-opacity:1"
       id="rect462-3"
       width="5"
       height="60"
       x="148.3317"
       y="65.064415" />
    <rect
       style="fill:none;stroke:#000000;stroke-width:0.341575;stroke-opacity:1"
       id="rect462-3-6"
       width="5"
       height="100"
       x="120.06441"
       y="-153.3317"
       transform="rotate(90)" />
    <rect
       style="fill:none;stroke:#000000;stroke-width:0.341575;stroke-opacity:1"
       id="rect462-3-6-7"
       width="5"
       height="100"
       x="65.064415"
       y="-153.3317"
       transform="rotate(90)" />
    <rect
       style="fill:none;stroke:#000000;stroke-width:0.264583;stroke-opacity:1"
       id="rect1520"
       width="50"
       height="60"
       x="53.331692"
       y="65.064415" />
    <rect
       style="fill:none;stroke:#000000;stroke-width:0.264583;stroke-opacity:1"
       id="rect1624"
       width="100"
       height="30"
       x="53.331692"
       y="65.064415" />
    <rect
       style="fill:none;stroke:#000000;stroke-width:0.262263;stroke-opacity:1"
       id="rect1744"
       width="100.00231"
       height="14.737737"
       x="53.330532"
       y="65.063255" />
    <rect
       style="fill:none;stroke:#000000;stroke-width:0.262263;stroke-opacity:1"
       id="rect1744-5"
       width="100.00231"
       height="14.737737"
       x="53.329391"
       y="110.32667" />
    <rect
       style="fill:none;stroke:#0036c1;stroke-width:0.311831;stroke-opacity:1"
       id="rect1982"
       width="40.992069"
       height="30.49708"
       x="83.002106"
       y="79.781937" />
    <rect
       style="fill:none;stroke:#0036c1;stroke-width:0.455387;stroke-opacity:1"
       id="rect1982-2"
       width="53.420334"
       height="49.90826"
       x="76.787979"
       y="70.091255" />
    <rect
       style="fill:none;stroke:#b20051;stroke-width:0.395784;stroke-opacity:1"
       id="rect1982-5"
       width="66.035461"
       height="30.496943"
       x="70.422226"
       y="79.782005" />
    <rect
       style="fill:none;stroke:#b20051;stroke-width:0.554863;stroke-opacity:1"
       id="rect1982-5-6"
       width="79.225067"
       height="49.960423"
       x="64.143242"
       y="70.041267" />
  </g>
  <g
     inkscape:groupmode="layer"
     id="layer2"
     inkscape:label="Nand"
     style="display:inline">
    <rect
       style="fill:#5555ff;stroke:none;stroke-width:0.305737;stroke-opacity:1"
       id="rect3128"
       width="40.066788"
       height="50.468826"
       x="25.358202"
       y="4.7054935"
       ry="4.9097633"
       rx="8.1520529" />
    <path
       style="fill:#c8b7b7;stroke:#2c2ca0;stroke-width:2;stroke-linecap:round;stroke-linejoin:round;stroke-opacity:1;stroke-miterlimit:4;stroke-dasharray:none"
       d="M 17.090534,14.71759 -0.00115993,14.73658"
       id="path4219" />
    <path
       style="fill:#c8b7b7;stroke:#2c2ca0;stroke-width:2;stroke-linecap:round;stroke-linejoin:round;stroke-opacity:1;stroke-miterlimit:4;stroke-dasharray:none"
       d="m 17.090534,45.214531 -17.09283452,0.04772"
       id="path4221" />
    <rect
       style="fill:#5555ff;stroke:none;stroke-width:0.418646;stroke-opacity:1"
       id="rect3462"
       width="24.641705"
       height="50.468826"
       x="17.161497"
       y="4.7054935"
       ry="0" />
    <path
       style="fill:#212178;stroke:#2c2ca0;stroke-width:2;stroke-linecap:round;stroke-linejoin:round;stroke-miterlimit:4;stroke-dasharray:none;stroke-opacity:1"
       d="M 83.07785,29.984488 100,30"
       id="path4408"
       sodipodi:nodetypes="cc" />
    <ellipse
       style="fill:#5555ff;stroke:none;stroke-width:0.392;stroke-opacity:1;stroke-miterlimit:4;stroke-dasharray:none;fill-opacity:1"
       id="path3256"
       cx="59.042767"
       cy="29.937464"
       rx="24.202307"
       ry="25.260239" />
    <ellipse
       style="fill:#161650;fill-opacity:1;stroke:none;stroke-width:0.391999;stroke-linecap:round;stroke-linejoin:round;stroke-miterlimit:4;stroke-dasharray:none;stroke-opacity:1"
       id="path11744"
       cx="86.735237"
       cy="30.124733"
       rx="3.7592349"
       ry="3.8843672" />
  </g>
</svg>
